=======================================================
This is an intro file.  It is used to preface your
file list.
=======================================================
Techno-Mages' Guild                      (619) 549-7742
                     Fido: 1:202/720.0
=======================================================

